<?xml version="1.0" encoding="utf-8" ?>
<svg xmlns="http://www.w3.org/2000/svg" xmlns:xlink="http://www.w3.org/1999/xlink" width="23" height="40">
	<g>
		<path fill="rgb(76,107,255)" stroke="none" transform="translate(0 10)" d="M0 0L7 0L7 20L0 20L0 0Z"/>
		<path fill="rgb(76,107,255)" stroke="none" transform="translate(3 0)" d="M2.83107e-14 0L0 40L20 20L2.83107e-14 0Z"/>
		<path fill="rgb(154,190,247)" stroke="none" transform="translate(1 11)" d="M0 0L1 0L1 18L0 18L0 0Z"/>
		<path fill="none" stroke="rgb(255,255,255)" stroke-width="0.5" stroke-miterlimit="4" transform="translate(1 11)" d="M0 0L1 0L1 18L0 18L0 0Z"/>
		<path fill="rgb(203,126,0)" stroke="none" transform="translate(3 0)" d="M2.83107e-14 0L0 40L20 20L2.83107e-14 0Z"/>
		<path fill="rgb(76,107,255)" stroke="none" transform="translate(3 0)" d="M2.83107e-14 0L0 40L20 20L2.83107e-14 0Z"/>
		<path fill="rgb(154,190,247)" stroke="none" transform="translate(5 4)" d="M2.1233e-14 0L0 32L15 16L2.1233e-14 0Z"/>
		<path fill="none" stroke="rgb(255,255,255)" stroke-width="0.5" stroke-miterlimit="4" transform="translate(5 4)" d="M2.1233e-14 0L0 32L15 16L2.1233e-14 0Z"/>
	</g>
</svg>
